{"tenantID":"90c6a097-e65d-4bb1-81fb-afec63926cca","id":"cf8e22dc-c1f5-4351-baa3-447523f77bb6","siteID":"36cfb7cc-0e57-4c4b-9d29-6adaaf4bb499","url":"http://localhost.com/voluptatem-voluptatem-sed","commentCounts":{"action":{"REACTION":0},"status":{"APPROVED":0,"NONE":500,"PREMOD":0,"REJECTED":0,"SYSTEM_WITHHELD":0},"moderationQueue":{"total":500,"queues":{"unmoderated":500,"pending":0,"reported":0}}},"settings":{},"metadata":{"title":"Use the online AGP pixel, then you can reboot the multi-byte microchip!"},"createdAt":{"$date":"2020-11-30T19:00:51.653Z"},"importedAt":{"$date":"2020-11-30T11:26:29.818762-08:00"},"extra":null}
{"tenantID":"90c6a097-e65d-4bb1-81fb-afec63926cca","id":"dcf9997b-ae7e-4d96-b972-9a06503152de","siteID":"36cfb7cc-0e57-4c4b-9d29-6adaaf4bb499","url":"http://localhost.com/alias-aliquid-non","commentCounts":{"action":{"REACTION":0},"status":{"APPROVED":0,"NONE":500,"PREMOD":0,"REJECTED":0,"SYSTEM_WITHHELD":0},"moderationQueue":{"total":500,"queues":{"unmoderated":500,"pending":0,"reported":0}}},"settings":{},"metadata":{"title":"overriding the protocol won't do anything, we need to generate the online AI program!"},"createdAt":{"$date":"2020-11-30T19:00:51.653Z"},"importedAt":{"$date":"2020-11-30T11:26:29.821658-08:00"},"extra":null}
{"tenantID":"90c6a097-e65d-4bb1-81fb-afec63926cca","id":"6900eb1a-df82-432b-98fe-422410d092a7","siteID":"36cfb7cc-0e57-4c4b-9d29-6adaaf4bb499","url":"http://localhost.com/ad-illo-voluptas","commentCounts":{"action":{"REACTION":0},"status":{"APPROVED":0,"NONE":500,"PREMOD":0,"REJECTED":0,"SYSTEM_WITHHELD":0},"moderationQueue":{"total":500,"queues":{"unmoderated":500,"pending":0,"reported":0}}},"settings":{},"metadata":{"title":"overriding the driver won't do anything, we need to override the cross-platform SQL matrix!"},"createdAt":{"$date":"2020-11-30T19:00:51.653Z"},"importedAt":{"$date":"2020-11-30T11:26:29.820975-08:00"},"extra":null}
{"tenantID":"90c6a097-e65d-4bb1-81fb-afec63926cca","id":"c3fc408f-46e1-412f-ac6d-f5a51e2cba09","siteID":"36cfb7cc-0e57-4c4b-9d29-6adaaf4bb499","url":"http://localhost.com/sunt-quia-omnis","commentCounts":{"action":{"REACTION":0},"status":{"APPROVED":0,"NONE":500,"PREMOD":0,"REJECTED":0,"SYSTEM_WITHHELD":0},"moderationQueue":{"total":500,"queues":{"unmoderated":500,"pending":0,"reported":0}}},"settings":{},"metadata":{"title":"The HDD card is down, program the optical hard drive so we can hack the PCI microchip!"},"createdAt":{"$date":"2020-11-30T19:00:51.653Z"},"importedAt":{"$date":"2020-11-30T11:26:29.828574-08:00"},"extra":null}
{"tenantID":"90c6a097-e65d-4bb1-81fb-afec63926cca","id":"371cf581-38bc-427d-920a-ff275495d5db","siteID":"36cfb7cc-0e57-4c4b-9d29-6adaaf4bb499","url":"http://localhost.com/et-error-ratione","commentCounts":{"action":{"REACTION":0},"status":{"APPROVED":0,"NONE":500,"PREMOD":0,"REJECTED":0,"SYSTEM_WITHHELD":0},"moderationQueue":{"total":500,"queues":{"unmoderated":500,"pending":0,"reported":0}}},"settings":{},"metadata":{"title":"I'll synthesize the wireless PCI array, that should monitor the SQL circuit!"},"createdAt":{"$date":"2020-11-30T19:00:51.653Z"},"importedAt":{"$date":"2020-11-30T11:26:29.877699-08:00"},"extra":null}
{"tenantID":"90c6a097-e65d-4bb1-81fb-afec63926cca","id":"39c31053-ef17-48db-bc87-48abb7eb2ed0","siteID":"36cfb7cc-0e57-4c4b-9d29-6adaaf4bb499","url":"http://localhost.com/officiis-doloribus-ab","commentCounts":{"action":{"REACTION":0},"status":{"APPROVED":0,"NONE":500,"PREMOD":0,"REJECTED":0,"SYSTEM_WITHHELD":0},"moderationQueue":{"total":500,"queues":{"unmoderated":500,"pending":0,"reported":0}}},"settings":{},"metadata":{"title":"I'll calculate the optical XSS interface, that should feed the SCSI firewall!"},"createdAt":{"$date":"2020-11-30T19:00:51.653Z"},"importedAt":{"$date":"2020-11-30T11:26:29.891977-08:00"},"extra":null}
{"tenantID":"90c6a097-e65d-4bb1-81fb-afec63926cca","id":"bb22d42e-b22b-4505-984f-934c88e17280","siteID":"36cfb7cc-0e57-4c4b-9d29-6adaaf4bb499","url":"http://localhost.com/adipisci-modi-id","commentCounts":{"action":{"REACTION":0},"status":{"APPROVED":0,"NONE":500,"PREMOD":0,"REJECTED":0,"SYSTEM_WITHHELD":0},"moderationQueue":{"total":500,"queues":{"unmoderated":500,"pending":0,"reported":0}}},"settings":{},"metadata":{"title":"Use the wireless IB program, then you can bypass the optical feed!"},"createdAt":{"$date":"2020-11-30T19:00:51.653Z"},"importedAt":{"$date":"2020-11-30T11:26:29.893909-08:00"},"extra":null}
{"tenantID":"90c6a097-e65d-4bb1-81fb-afec63926cca","id":"2732ab7a-4345-4fab-a173-78ef94549f04","siteID":"36cfb7cc-0e57-4c4b-9d29-6adaaf4bb499","url":"http://localhost.com/pariatur-quaerat-nulla","commentCounts":{"action":{"REACTION":0},"status":{"APPROVED":0,"NONE":500,"PREMOD":0,"REJECTED":0,"SYSTEM_WITHHELD":0},"moderationQueue":{"total":500,"queues":{"unmoderated":500,"pending":0,"reported":0}}},"settings":{},"metadata":{"title":"If we compress the sensor, we can get to the CSS sensor through the optical GB interface!"},"createdAt":{"$date":"2020-11-30T19:00:51.653Z"},"importedAt":{"$date":"2020-11-30T11:26:29.878474-08:00"},"extra":null}
{"tenantID":"90c6a097-e65d-4bb1-81fb-afec63926cca","id":"b165baa6-e571-4248-9bc1-a60d81449ae1","siteID":"36cfb7cc-0e57-4c4b-9d29-6adaaf4bb499","url":"http://localhost.com/sequi-exercitationem-hic","commentCounts":{"action":{"REACTION":0},"status":{"APPROVED":0,"NONE":500,"PREMOD":0,"REJECTED":0,"SYSTEM_WITHHELD":0},"moderationQueue":{"total":500,"queues":{"unmoderated":500,"pending":0,"reported":0}}},"settings":{},"metadata":{"title":"Use the wireless SMTP transmitter, then you can copy the multi-byte port!"},"createdAt":{"$date":"2020-11-30T19:00:51.654Z"},"importedAt":{"$date":"2020-11-30T11:26:29.928265-08:00"},"extra":null}
{"tenantID":"90c6a097-e65d-4bb1-81fb-afec63926cca","id":"3c4afeaf-c872-43c5-b263-ef4952ba761c","siteID":"36cfb7cc-0e57-4c4b-9d29-6adaaf4bb499","url":"http://localhost.com/dolores-ipsum-nulla","commentCounts":{"action":{"REACTION":0},"status":{"APPROVED":0,"NONE":500,"PREMOD":0,"REJECTED":0,"SYSTEM_WITHHELD":0},"moderationQueue":{"total":500,"queues":{"unmoderated":500,"pending":0,"reported":0}}},"settings":{},"metadata":{"title":"I'll compress the wireless RSS microchip, that should circuit the PNG capacitor!"},"createdAt":{"$date":"2020-11-30T19:00:51.654Z"},"importedAt":{"$date":"2020-11-30T11:26:29.96039-08:00"},"extra":null}
{"tenantID":"90c6a097-e65d-4bb1-81fb-afec63926cca","id":"3e8f6959-c459-4104-953b-5b9aeb5b8dc5","siteID":"36cfb7cc-0e57-4c4b-9d29-6adaaf4bb499","url":"http://localhost.com/eveniet-dolores-necessitatibus","commentCounts":{"action":{"REACTION":0},"status":{"APPROVED":0,"NONE":500,"PREMOD":0,"REJECTED":0,"SYSTEM_WITHHELD":0},"moderationQueue":{"total":500,"queues":{"unmoderated":500,"pending":0,"reported":0}}},"settings":{},"metadata":{"title":"You can't bypass the monitor without generating the mobile AGP bus!"},"createdAt":{"$date":"2020-11-30T19:00:51.654Z"},"importedAt":{"$date":"2020-11-30T11:26:29.987594-08:00"},"extra":null}
{"tenantID":"90c6a097-e65d-4bb1-81fb-afec63926cca","id":"af822b3f-1518-43d7-bccf-e87f34dee9e8","siteID":"36cfb7cc-0e57-4c4b-9d29-6adaaf4bb499","url":"http://localhost.com/saepe-quae-autem","commentCounts":{"action":{"REACTION":0},"status":{"APPROVED":0,"NONE":500,"PREMOD":0,"REJECTED":0,"SYSTEM_WITHHELD":0},"moderationQueue":{"total":500,"queues":{"unmoderated":500,"pending":0,"reported":0}}},"settings":{},"metadata":{"title":"Try to parse the JSON bus, maybe it will generate the neural sensor!"},"createdAt":{"$date":"2020-11-30T19:00:51.654Z"},"importedAt":{"$date":"2020-11-30T11:26:30.009113-08:00"},"extra":null}
{"tenantID":"90c6a097-e65d-4bb1-81fb-afec63926cca","id":"4fd58f5f-6054-4579-9eef-0e34d8ffaf4c","siteID":"36cfb7cc-0e57-4c4b-9d29-6adaaf4bb499","url":"http://localhost.com/quia-numquam-explicabo","commentCounts":{"action":{"REACTION":0},"status":{"APPROVED":0,"NONE":500,"PREMOD":0,"REJECTED":0,"SYSTEM_WITHHELD":0},"moderationQueue":{"total":500,"queues":{"unmoderated":500,"pending":0,"reported":0}}},"settings":{},"metadata":{"title":"We need to generate the online HTTP panel!"},"createdAt":{"$date":"2020-11-30T19:00:51.654Z"},"importedAt":{"$date":"2020-11-30T11:26:30.023373-08:00"},"extra":null}
{"tenantID":"90c6a097-e65d-4bb1-81fb-afec63926cca","id":"3c275521-82c1-4027-ac36-d14135a8f748","siteID":"36cfb7cc-0e57-4c4b-9d29-6adaaf4bb499","url":"http://localhost.com/quisquam-et-magni","commentCounts":{"action":{"REACTION":0},"status":{"APPROVED":0,"NONE":500,"PREMOD":0,"REJECTED":0,"SYSTEM_WITHHELD":0},"moderationQueue":{"total":500,"queues":{"unmoderated":500,"pending":0,"reported":0}}},"settings":{},"metadata":{"title":"The RSS application is down, bypass the optical matrix so we can calculate the COM hard drive!"},"createdAt":{"$date":"2020-11-30T19:00:51.654Z"},"importedAt":{"$date":"2020-11-30T11:26:30.043852-08:00"},"extra":null}
{"tenantID":"90c6a097-e65d-4bb1-81fb-afec63926cca","id":"2b3570cc-6f2c-4a52-a4e1-01a230ecb840","siteID":"36cfb7cc-0e57-4c4b-9d29-6adaaf4bb499","url":"http://localhost.com/cumque-beatae-iure","commentCounts":{"action":{"REACTION":0},"status":{"APPROVED":0,"NONE":500,"PREMOD":0,"REJECTED":0,"SYSTEM_WITHHELD":0},"moderationQueue":{"total":500,"queues":{"unmoderated":500,"pending":0,"reported":0}}},"settings":{},"metadata":{"title":"calculating the monitor won't do anything, we need to parse the open-source THX program!"},"createdAt":{"$date":"2020-11-30T19:00:51.654Z"},"importedAt":{"$date":"2020-11-30T11:26:30.070558-08:00"},"extra":null}
